Lab 3: COVID-19
…
all_watch_list <- filter(combined_data, date >= my.date - 14, state == "Colorado") %>%
  group_by(county) %>%
  reframe(
    total_new_cases = sum(new_cases, na.rm = TRUE), 
    cases_per_100k = (total_new_cases / POPESTIMATE2021)* 100000
  ) %>%
  distinct() %>%
  filter(cases_per_100k > 100)
print(all_watch_list)

# A tibble: 64 × 3
   county     total_new_cases cases_per_100k
   <chr>                <dbl>          <dbl>
 1 Adams                22086          4219.
 2 Alamosa               1061          6400.
 3 Arapahoe             28043          4269.
 4 Archuleta              489          3542.
 5 Baca                   240          6877.
 6 Bent                   516          9665.
 7 Boulder              17841          5455.
 8 Broomfield            2959          3924.
 9 Chaffee               1077          5456.
10 Cheyenne                49          2850.
# ℹ 54 more rows
…
